{
  "$schema": "https://schema.management.azure.com/schemas/2015-01-01/deploymentParameters.json#",
  "contentVersion": "1.0.0.0",
  "parameters": {
    "appService_WeatherForecastMinApi2022_name": {
      "value": "WeatherForecastMinApi2022"
    },
    "appServicePlan_WeatherForecastMinApi-HostingPlan_location": {
      "value": "West Europe"
    },
    "appServicePlan_WeatherForecastMinApi-HostingPlan_name": {
      "value": "WeatherForecastMinApi-HostingPlan"
    },
    "appServicePlan_WeatherForecastMinApi-HostingPlan_skuName": {
      "value": "F1"
    },
    "appServicePlan_WeatherForecastMinApi-HostingPlan_skuTier": {
      "value": "Free"
    },
    "appServicePlan_WeatherForecastMinApi-HostingPlan_skuFamily": {
      "value": "F"
    },
    "appServicePlan_WeatherForecastMinApi-HostingPlan_skuSize": {
      "value": "F1"
    },
    "appServicePlan_WeatherForecastMinApi-HostingPlan_workerSizeId": {
      "value": 0
    }
  }
}