{
  "profiles": {
    "WeatherForecastMinApi.Tests": {
      "commandName": "Project",
      "launchBrowser": true,
      "environmentVariables": {
        "ASPNETCORE_ENVIRONMENT": "Development"
      },
      "applicationUrl": "https://localhost:4467;http://localhost:4468"
    }
  }
}